%YAML 1.1
%TAG !u! tag:unity3d.com,2011:
--- !u!1 &8018263334097361025
GameObject:
  m_ObjectHideFlags: 0
  m_CorrespondingSourceObject: {fileID: 0}
  m_PrefabInstance: {fileID: 0}
  m_PrefabAsset: {fileID: 0}
  serializedVersion: 6
  m_Component:
  - component: {fileID: 8018263334097361030}
  m_Layer: 0
  m_Name: Floor
  m_TagString: Untagged
  m_Icon: {fileID: 0}
  m_NavMeshLayer: 0
  m_StaticEditorFlags: 0
  m_IsActive: 1
--- !u!4 &8018263334097361030
Transform:
  m_ObjectHideFlags: 0
  m_CorrespondingSourceObject: {fileID: 0}
  m_PrefabInstance: {fileID: 0}
  m_PrefabAsset: {fileID: 0}
  m_GameObject: {fileID: 8018263334097361025}
  m_LocalRotation: {x: -0, y: -0, z: -0, w: 1}
  m_LocalPosition: {x: -10.651843, y: -0.6001215, z: 1.8844557}
  m_LocalScale: {x: 1, y: 1, z: 1}
  m_Children:
  - {fileID: 8952511807526302788}
  - {fileID: 6527274519118038587}
  m_Father: {fileID: 0}
  m_RootOrder: 0
  m_LocalEulerAnglesHint: {x: 0, y: 0, z: 0}
--- !u!1001 &8018263335430002031
PrefabInstance:
  m_ObjectHideFlags: 0
  serializedVersion: 2
  m_Modification:
    m_TransformParent: {fileID: 8018263334097361030}
    m_Modifications:
    - target: {fileID: 2494374978718678300, guid: 3b6b16cbd35d36f40aa2e9f40746ddaf,
        type: 3}
      propertyPath: m_SortingOrder
      value: 1
      objectReference: {fileID: 0}
    - target: {fileID: 3878463026225304404, guid: 3b6b16cbd35d36f40aa2e9f40746ddaf,
        type: 3}
      propertyPath: m_LocalPosition.x
      value: -4.0277357
      objectReference: {fileID: 0}
    - target: {fileID: 3878463026225304404, guid: 3b6b16cbd35d36f40aa2e9f40746ddaf,
        type: 3}
      propertyPath: m_LocalPosition.y
      value: 1.1721373
      objectReference: {fileID: 0}
    - target: {fileID: 3878463026225304404, guid: 3b6b16cbd35d36f40aa2e9f40746ddaf,
        type: 3}
      propertyPath: m_LocalPosition.z
      value: 11.146034
      objectReference: {fileID: 0}
    - target: {fileID: 3878463026225304404, guid: 3b6b16cbd35d36f40aa2e9f40746ddaf,
        type: 3}
      propertyPath: m_LocalRotation.x
      value: -0
      objectReference: {fileID: 0}
    - target: {fileID: 3878463026225304404, guid: 3b6b16cbd35d36f40aa2e9f40746ddaf,
        type: 3}
      propertyPath: m_LocalRotation.y
      value: -0
      objectReference: {fileID: 0}
    - target: {fileID: 3878463026225304404, guid: 3b6b16cbd35d36f40aa2e9f40746ddaf,
        type: 3}
      propertyPath: m_LocalRotation.z
      value: -0
      objectReference: {fileID: 0}
    - target: {fileID: 3878463026225304404, guid: 3b6b16cbd35d36f40aa2e9f40746ddaf,
        type: 3}
      propertyPath: m_LocalRotation.w
      value: 1
      objectReference: {fileID: 0}
    - target: {fileID: 3878463026225304404, guid: 3b6b16cbd35d36f40aa2e9f40746ddaf,
        type: 3}
      propertyPath: m_RootOrder
      value: 1
      objectReference: {fileID: 0}
    - target: {fileID: 3878463026225304404, guid: 3b6b16cbd35d36f40aa2e9f40746ddaf,
        type: 3}
      propertyPath: m_LocalEulerAnglesHint.x
      value: 0
      objectReference: {fileID: 0}
    - target: {fileID: 3878463026225304404, guid: 3b6b16cbd35d36f40aa2e9f40746ddaf,
        type: 3}
      propertyPath: m_LocalEulerAnglesHint.y
      value: 0
      objectReference: {fileID: 0}
    - target: {fileID: 3878463026225304404, guid: 3b6b16cbd35d36f40aa2e9f40746ddaf,
        type: 3}
      propertyPath: m_LocalEulerAnglesHint.z
      value: 0
      objectReference: {fileID: 0}
    - target: {fileID: 7868048339634965423, guid: 3b6b16cbd35d36f40aa2e9f40746ddaf,
        type: 3}
      propertyPath: m_Name
      value: Terrain (16x16)_10
      objectReference: {fileID: 0}
    m_RemovedComponents: []
  m_SourcePrefab: {fileID: 100100000, guid: 3b6b16cbd35d36f40aa2e9f40746ddaf, type: 3}
--- !u!4 &6527274519118038587 stripped
Transform:
  m_CorrespondingSourceObject: {fileID: 3878463026225304404, guid: 3b6b16cbd35d36f40aa2e9f40746ddaf,
    type: 3}
  m_PrefabInstance: {fileID: 8018263335430002031}
  m_PrefabAsset: {fileID: 0}
--- !u!1001 &8018263335586607389
PrefabInstance:
  m_ObjectHideFlags: 0
  serializedVersion: 2
  m_Modification:
    m_TransformParent: {fileID: 8018263334097361030}
    m_Modifications:
    - target: {fileID: 705314669964674575, guid: 2377cb75a1c59314c91d69a02262272d,
        type: 3}
      propertyPath: m_Name
      value: Terrain (16x16)_12
      objectReference: {fileID: 0}
    - target: {fileID: 1403766334142399833, guid: 2377cb75a1c59314c91d69a02262272d,
        type: 3}
      propertyPath: m_LocalPosition.x
      value: -3.0277357
      objectReference: {fileID: 0}
    - target: {fileID: 1403766334142399833, guid: 2377cb75a1c59314c91d69a02262272d,
        type: 3}
      propertyPath: m_LocalPosition.y
      value: 1.1721373
      objectReference: {fileID: 0}
    - target: {fileID: 1403766334142399833, guid: 2377cb75a1c59314c91d69a02262272d,
        type: 3}
      propertyPath: m_LocalPosition.z
      value: 11.146034
      objectReference: {fileID: 0}
    - target: {fileID: 1403766334142399833, guid: 2377cb75a1c59314c91d69a02262272d,
        type: 3}
      propertyPath: m_LocalRotation.x
      value: -0
      objectReference: {fileID: 0}
    - target: {fileID: 1403766334142399833, guid: 2377cb75a1c59314c91d69a02262272d,
        type: 3}
      propertyPath: m_LocalRotation.y
      value: -0
      objectReference: {fileID: 0}
    - target: {fileID: 1403766334142399833, guid: 2377cb75a1c59314c91d69a02262272d,
        type: 3}
      propertyPath: m_LocalRotation.z
      value: -0
      objectReference: {fileID: 0}
    - target: {fileID: 1403766334142399833, guid: 2377cb75a1c59314c91d69a02262272d,
        type: 3}
      propertyPath: m_LocalRotation.w
      value: 1
      objectReference: {fileID: 0}
    - target: {fileID: 1403766334142399833, guid: 2377cb75a1c59314c91d69a02262272d,
        type: 3}
      propertyPath: m_RootOrder
      value: 0
      objectReference: {fileID: 0}
    - target: {fileID: 1403766334142399833, guid: 2377cb75a1c59314c91d69a02262272d,
        type: 3}
      propertyPath: m_LocalEulerAnglesHint.x
      value: 0
      objectReference: {fileID: 0}
    - target: {fileID: 1403766334142399833, guid: 2377cb75a1c59314c91d69a02262272d,
        type: 3}
      propertyPath: m_LocalEulerAnglesHint.y
      value: 0
      objectReference: {fileID: 0}
    - target: {fileID: 1403766334142399833, guid: 2377cb75a1c59314c91d69a02262272d,
        type: 3}
      propertyPath: m_LocalEulerAnglesHint.z
      value: 0
      objectReference: {fileID: 0}
    - target: {fileID: 6414347481040150429, guid: 2377cb75a1c59314c91d69a02262272d,
        type: 3}
      propertyPath: m_SortingOrder
      value: 1
      objectReference: {fileID: 0}
    m_RemovedComponents: []
  m_SourcePrefab: {fileID: 100100000, guid: 2377cb75a1c59314c91d69a02262272d, type: 3}
--- !u!4 &8952511807526302788 stripped
Transform:
  m_CorrespondingSourceObject: {fileID: 1403766334142399833, guid: 2377cb75a1c59314c91d69a02262272d,
    type: 3}
  m_PrefabInstance: {fileID: 8018263335586607389}
  m_PrefabAsset: {fileID: 0}
